…
# Preview
tail(tornado_clean, 1000)
```

    ## # A tibble: 1,000 × 20
    ##    DATE        YEAR START_DATE END_DATE   START_LAT START_LON END_LAT END_LON
    ##    <date>     <dbl> <date>     <date>         <dbl>     <dbl>   <dbl>   <dbl>
    ##  1 2013-02-10  2013 2013-02-10 2013-02-10      31.5     -88.2    31.6   -88.1
    ##  2 2013-02-10  2013 2013-02-10 2013-02-10      31.6     -88.1    31.6   -87.9
    ##  3 2013-02-10  2013 2013-02-10 2013-02-10      31.6     -87.9    31.6   -87.8
    ##  4 2013-03-18  2013 2013-03-18 2013-03-18      34.7     -87.5    34.7   -87.5
    ##  5 2013-03-18  2013 2013-03-18 2013-03-18      34.2     -86.2    34.2   -86.1
    ##  6 2013-03-18  2013 2013-03-18 2013-03-18      34.3     -86.1    34.3   -86.1
    ##  7 2013-03-18  2013 2013-03-18 2013-03-18      34.5     -86.0    34.5   -85.9
    ##  8 2013-03-18  2013 2013-03-18 2013-03-18      34.3     -86.1    34.3   -86.1
    ##  9 2013-03-18  2013 2013-03-18 2013-03-18      34.2     -86.1    34.2   -86.0
    ## 10 2013-04-11  2013 2013-04-11 2013-04-11      33.3     -88.3    33.4   -88.2
    ## # ℹ 990 more rows
    ## # ℹ 12 more variables: TOR_F_SCALE <chr>, TORNADO_LENGTH <dbl>,
    ## #   TORNADO_WIDTH <dbl>, DEATHS <dbl>, INJURIES <dbl>, DAMAGE_PROPERTY <dbl>,
    ## #   DAMAGE_CROPS <dbl>, DAMAGE_PROPERTY_2025_USD <dbl>,
    ## #   DAMAGE_CROPS_2025_USD <dbl>, DAMAGE_PROPERTY_2025_DOL <chr>,
    ## #   DAMAGE_CROPS_2025_DOL <chr>, TOR_F_SCALE_NUM <dbl>
…
``` r
annual_damage <- tornado_clean %>%
  group_by(YEAR) %>%
  summarise(
    total_property_damage = sum(DAMAGE_PROPERTY_2025_USD, na.rm = TRUE),
    total_crop_damage     = sum(DAMAGE_CROPS_2025_USD, na.rm = TRUE),
    full_damage_cost      = sum(total_property_damage + total_crop_damage, na.rm = TRUE),
    tornado_count         = n(),
    mean_intensity        = mean(TOR_F_SCALE_NUM, na.rm = TRUE)
  )

annual_damage
```

    ## # A tibble: 76 × 6
    ##     YEAR total_property_damage total_crop_damage full_damage_cost tornado_count
    ##    <dbl>                 <dbl>             <dbl>            <dbl>         <int>
    ##  1  1950               377172.                 0          377172.             2
    ##  2  1951               437649.                 0          437649.             5
    ##  3  1952             66965434.                 0        66965434.            13
    ##  4  1953             37313011.                 0        37313011.            22
    ##  5  1954              7356486.                 0         7356486.            10
    ##  6  1955             91709011.                 0        91709011.             8
    ##  7  1956             30752239.                 0        30752239.             7
    ##  8  1957             82831327.                 0        82831327.            51
    ##  9  1958             23120159.                 0        23120159.            23
    ## 10  1959              3691590.                 0         3691590.             9
    ## # ℹ 66 more rows
    ## # ℹ 1 more variable: mean_intensity <dbl>
…
